Data Preparation
…
.panel1-join-auto[

```r
library(gapminder)
library(tidyverse)
*gapminder
```
]
 
.panel2-join-auto[

```
# A tibble: 1,704 x 6
   country     continent  year lifeExp      pop gdpPercap
   <fct>       <fct>     <int>   <dbl>    <int>     <dbl>
 1 Afghanistan Asia       1952    28.8  8425333      779.
 2 Afghanistan Asia       1957    30.3  9240934      821.
 3 Afghanistan Asia       1962    32.0 10267083      853.
 4 Afghanistan Asia       1967    34.0 11537966      836.
 5 Afghanistan Asia       1972    36.1 13079460      740.
 6 Afghanistan Asia       1977    38.4 14880372      786.
 7 Afghanistan Asia       1982    39.9 12881816      978.
 8 Afghanistan Asia       1987    40.8 13867957      852.
 9 Afghanistan Asia       1992    41.7 16317921      649.
10 Afghanistan Asia       1997    41.8 22227415      635.
# … with 1,694 more rows
```
…
.panel1-join-auto[

```r
library(gapminder)
library(tidyverse)
gapminder %>%
* select(country, lifeExp, year)
```
]
 
.panel2-join-auto[

```
# A tibble: 1,704 x 3
   country     lifeExp  year
   <fct>         <dbl> <int>
 1 Afghanistan    28.8  1952
 2 Afghanistan    30.3  1957
 3 Afghanistan    32.0  1962
 4 Afghanistan    34.0  1967
 5 Afghanistan    36.1  1972
 6 Afghanistan    38.4  1977
 7 Afghanistan    39.9  1982
 8 Afghanistan    40.8  1987
 9 Afghanistan    41.7  1992
10 Afghanistan    41.8  1997
# … with 1,694 more rows
```
…
```r
library(gapminder)
library(tidyverse)
gapminder %>%
  select(country, lifeExp, year) ->
  country_life
*gapminder
```
]
 
.panel2-join-auto[

```
# A tibble: 1,704 x 6
   country     continent  year lifeExp      pop gdpPercap
   <fct>       <fct>     <int>   <dbl>    <int>     <dbl>
 1 Afghanistan Asia       1952    28.8  8425333      779.
 2 Afghanistan Asia       1957    30.3  9240934      821.
 3 Afghanistan Asia       1962    32.0 10267083      853.
 4 Afghanistan Asia       1967    34.0 11537966      836.
 5 Afghanistan Asia       1972    36.1 13079460      740.
 6 Afghanistan Asia       1977    38.4 14880372      786.
 7 Afghanistan Asia       1982    39.9 12881816      978.
 8 Afghanistan Asia       1987    40.8 13867957      852.
 9 Afghanistan Asia       1992    41.7 16317921      649.
10 Afghanistan Asia       1997    41.8 22227415      635.
# … with 1,694 more rows
```
…
```r
library(gapminder)
library(tidyverse)
gapminder %>%
  select(country, lifeExp, year) ->
  country_life
gapminder %>%
* select(country, pop, year)
```
]
 
.panel2-join-auto[

```
# A tibble: 1,704 x 3
   country          pop  year
   <fct>          <int> <int>
 1 Afghanistan  8425333  1952
 2 Afghanistan  9240934  1957
 3 Afghanistan 10267083  1962
 4 Afghanistan 11537966  1967
 5 Afghanistan 13079460  1972
 6 Afghanistan 14880372  1977
 7 Afghanistan 12881816  1982
 8 Afghanistan 13867957  1987
 9 Afghanistan 16317921  1992
10 Afghanistan 22227415  1997
# … with 1,694 more rows
```
…
.panel2-join-auto[

```
# A tibble: 1,704 x 3
   country          pop  year
   <fct>          <int> <int>
 1 Afghanistan  8425333  1952
 2 Afghanistan  9240934  1957
 3 Afghanistan 10267083  1962
 4 Afghanistan 11537966  1967
 5 Afghanistan 13079460  1972
 6 Afghanistan 14880372  1977
 7 Afghanistan 12881816  1982
 8 Afghanistan 13867957  1987
 9 Afghanistan 16317921  1992
10 Afghanistan 22227415  1997
# … with 1,694 more rows
```
…
.panel2-join-auto[

```
# A tibble: 1,704 x 4
   country          pop  year lifeExp
   <fct>          <int> <int>   <dbl>
 1 Afghanistan  8425333  1952    28.8
 2 Afghanistan  9240934  1957    30.3
 3 Afghanistan 10267083  1962    32.0
 4 Afghanistan 11537966  1967    34.0
 5 Afghanistan 13079460  1972    36.1
 6 Afghanistan 14880372  1977    38.4
 7 Afghanistan 12881816  1982    39.9
 8 Afghanistan 13867957  1987    40.8
 9 Afghanistan 16317921  1992    41.7
10 Afghanistan 22227415  1997    41.8
# … with 1,694 more rows
```
…
.panel1-lef-auto[

```r
library(nycflights13)

# mutating joins: left_join,right_join, full_join, inner_join
*flights
```
]
 
.panel2-lef-auto[

```
# A tibble: 336,776 x 19
    year month   day dep_time sched_dep_time dep_delay arr_time sched_arr_time
   <int> <int> <int>    <int>          <int>     <dbl>    <int>          <int>
 1  2013     1     1      517            515         2      830            819
 2  2013     1     1      533            529         4      850            830
 3  2013     1     1      542            540         2      923            850
 4  2013     1     1      544            545        -1     1004           1022
 5  2013     1     1      554            600        -6      812            837
 6  2013     1     1      554            558        -4      740            728
 7  2013     1     1      555            600        -5      913            854
 8  2013     1     1      557            600        -3      709            723
 9  2013     1     1      557            600        -3      838            846
10  2013     1     1      558            600        -2      753            745
# … with 336,766 more rows, and 11 more variables: arr_delay <dbl>,
#   carrier <chr>, flight <int>, tailnum <chr>, origin <chr>, dest <chr>,
#   air_time <dbl>, distance <dbl>, hour <dbl>, minute <dbl>, time_hour <dttm>
```
…
```r
library(nycflights13)

# mutating joins: left_join,right_join, full_join, inner_join
flights %>%
  select(year:day, hour, origin, dest, tailnum, carrier) -> flights2
*flights2
```
]
 
.panel2-lef-auto[

```
# A tibble: 336,776 x 8
    year month   day  hour origin dest  tailnum carrier
   <int> <int> <int> <dbl> <chr>  <chr> <chr>   <chr>  
 1  2013     1     1     5 EWR    IAH   N14228  UA     
 2  2013     1     1     5 LGA    IAH   N24211  UA     
 3  2013     1     1     5 JFK    MIA   N619AA  AA     
 4  2013     1     1     5 JFK    BQN   N804JB  B6     
 5  2013     1     1     6 LGA    ATL   N668DN  DL     
 6  2013     1     1     5 EWR    ORD   N39463  UA     
 7  2013     1     1     6 EWR    FLL   N516JB  B6     
 8  2013     1     1     6 LGA    IAD   N829AS  EV     
 9  2013     1     1     6 JFK    MCO   N593JB  B6     
10  2013     1     1     6 LGA    ORD   N3ALAA  AA     
# … with 336,766 more rows
```
…
```r
library(nycflights13)

# mutating joins: left_join,right_join, full_join, inner_join
flights %>%
  select(year:day, hour, origin, dest, tailnum, carrier) -> flights2
flights2 %>%
* left_join(airlines, by="carrier")
```
]
 
.panel2-lef-auto[

```
# A tibble: 336,776 x 9
    year month   day  hour origin dest  tailnum carrier name                    
   <int> <int> <int> <dbl> <chr>  <chr> <chr>   <chr>   <chr>                   
 1  2013     1     1     5 EWR    IAH   N14228  UA      United Air Lines Inc.   
 2  2013     1     1     5 LGA    IAH   N24211  UA      United Air Lines Inc.   
 3  2013     1     1     5 JFK    MIA   N619AA  AA      American Airlines Inc.  
 4  2013     1     1     5 JFK    BQN   N804JB  B6      JetBlue Airways         
 5  2013     1     1     6 LGA    ATL   N668DN  DL      Delta Air Lines Inc.    
 6  2013     1     1     5 EWR    ORD   N39463  UA      United Air Lines Inc.   
 7  2013     1     1     6 EWR    FLL   N516JB  B6      JetBlue Airways         
 8  2013     1     1     6 LGA    IAD   N829AS  EV      ExpressJet Airlines Inc.
 9  2013     1     1     6 JFK    MCO   N593JB  B6      JetBlue Airways         
10  2013     1     1     6 LGA    ORD   N3ALAA  AA      American Airlines Inc.  
# … with 336,766 more rows
```
…
# mutating joins: left_join,right_join, full_join, inner_join
flights %>%
  select(year:day, hour, origin, dest, tailnum, carrier) -> flights2
flights2 %>%
  left_join(airlines, by="carrier")

*flights2
```
]
 
.panel2-lef-auto[

```
# A tibble: 336,776 x 9
    year month   day  hour origin dest  tailnum carrier name                    
   <int> <int> <int> <dbl> <chr>  <chr> <chr>   <chr>   <chr>                   
 1  2013     1     1     5 EWR    IAH   N14228  UA      United Air Lines Inc.   
 2  2013     1     1     5 LGA    IAH   N24211  UA      United Air Lines Inc.   
 3  2013     1     1     5 JFK    MIA   N619AA  AA      American Airlines Inc.  
 4  2013     1     1     5 JFK    BQN   N804JB  B6      JetBlue Airways         
 5  2013     1     1     6 LGA    ATL   N668DN  DL      Delta Air Lines Inc.    
 6  2013     1     1     5 EWR    ORD   N39463  UA      United Air Lines Inc.   
 7  2013     1     1     6 EWR    FLL   N516JB  B6      JetBlue Airways         
 8  2013     1     1     6 LGA    IAD   N829AS  EV      ExpressJet Airlines Inc.
 9  2013     1     1     6 JFK    MCO   N593JB  B6      JetBlue Airways         
10  2013     1     1     6 LGA    ORD   N3ALAA  AA      American Airlines Inc.  
# … with 336,766 more rows
```

```
# A tibble: 336,776 x 8
    year month   day  hour origin dest  tailnum carrier
   <int> <int> <int> <dbl> <chr>  <chr> <chr>   <chr>  
 1  2013     1     1     5 EWR    IAH   N14228  UA     
 2  2013     1     1     5 LGA    IAH   N24211  UA     
 3  2013     1     1     5 JFK    MIA   N619AA  AA     
 4  2013     1     1     5 JFK    BQN   N804JB  B6     
 5  2013     1     1     6 LGA    ATL   N668DN  DL     
 6  2013     1     1     5 EWR    ORD   N39463  UA     
 7  2013     1     1     6 EWR    FLL   N516JB  B6     
 8  2013     1     1     6 LGA    IAD   N829AS  EV     
 9  2013     1     1     6 JFK    MCO   N593JB  B6     
10  2013     1     1     6 LGA    ORD   N3ALAA  AA     
# … with 336,766 more rows
```
…
flights2 %>%
* left_join(weather,
*           by=c("origin","year","month","day"))
```
]
 
.panel2-lef-auto[

```
# A tibble: 336,776 x 9
    year month   day  hour origin dest  tailnum carrier name                    
   <int> <int> <int> <dbl> <chr>  <chr> <chr>   <chr>   <chr>                   
 1  2013     1     1     5 EWR    IAH   N14228  UA      United Air Lines Inc.   
 2  2013     1     1     5 LGA    IAH   N24211  UA      United Air Lines Inc.   
 3  2013     1     1     5 JFK    MIA   N619AA  AA      American Airlines Inc.  
 4  2013     1     1     5 JFK    BQN   N804JB  B6      JetBlue Airways         
 5  2013     1     1     6 LGA    ATL   N668DN  DL      Delta Air Lines Inc.    
 6  2013     1     1     5 EWR    ORD   N39463  UA      United Air Lines Inc.   
 7  2013     1     1     6 EWR    FLL   N516JB  B6      JetBlue Airways         
 8  2013     1     1     6 LGA    IAD   N829AS  EV      ExpressJet Airlines Inc.
 9  2013     1     1     6 JFK    MCO   N593JB  B6      JetBlue Airways         
10  2013     1     1     6 LGA    ORD   N3ALAA  AA      American Airlines Inc.  
# … with 336,766 more rows
```

```
# A tibble: 8,036,575 x 19
    year month   day hour.x origin dest  tailnum carrier hour.y  temp  dewp
   <int> <int> <int>  <dbl> <chr>  <chr> <chr>   <chr>    <int> <dbl> <dbl>
 1  2013     1     1      5 EWR    IAH   N14228  UA           1  39.0  26.1
 2  2013     1     1      5 EWR    IAH   N14228  UA           2  39.0  27.0
 3  2013     1     1      5 EWR    IAH   N14228  UA           3  39.0  28.0
 4  2013     1     1      5 EWR    IAH   N14228  UA           4  39.9  28.0
 5  2013     1     1      5 EWR    IAH   N14228  UA           5  39.0  28.0
 6  2013     1     1      5 EWR    IAH   N14228  UA           6  37.9  28.0
 7  2013     1     1      5 EWR    IAH   N14228  UA           7  39.0  28.0
 8  2013     1     1      5 EWR    IAH   N14228  UA           8  39.9  28.0
 9  2013     1     1      5 EWR    IAH   N14228  UA           9  39.9  28.0
10  2013     1     1      5 EWR    IAH   N14228  UA          10  41    28.0
# … with 8,036,565 more rows, and 8 more variables: humid <dbl>,
#   wind_dir <dbl>, wind_speed <dbl>, wind_gust <dbl>, precip <dbl>,
#   pressure <dbl>, visib <dbl>, time_hour <dttm>
```
…
flights2 %>%
  left_join(weather,
            by=c("origin","year","month","day"))
*flights2
```
]
 
.panel2-lef-auto[

```
# A tibble: 336,776 x 9
    year month   day  hour origin dest  tailnum carrier name                    
   <int> <int> <int> <dbl> <chr>  <chr> <chr>   <chr>   <chr>                   
 1  2013     1     1     5 EWR    IAH   N14228  UA      United Air Lines Inc.   
 2  2013     1     1     5 LGA    IAH   N24211  UA      United Air Lines Inc.   
 3  2013     1     1     5 JFK    MIA   N619AA  AA      American Airlines Inc.  
 4  2013     1     1     5 JFK    BQN   N804JB  B6      JetBlue Airways         
 5  2013     1     1     6 LGA    ATL   N668DN  DL      Delta Air Lines Inc.    
 6  2013     1     1     5 EWR    ORD   N39463  UA      United Air Lines Inc.   
 7  2013     1     1     6 EWR    FLL   N516JB  B6      JetBlue Airways         
 8  2013     1     1     6 LGA    IAD   N829AS  EV      ExpressJet Airlines Inc.
 9  2013     1     1     6 JFK    MCO   N593JB  B6      JetBlue Airways         
10  2013     1     1     6 LGA    ORD   N3ALAA  AA      American Airlines Inc.  
# … with 336,766 more rows
```

```
# A tibble: 8,036,575 x 19
    year month   day hour.x origin dest  tailnum carrier hour.y  temp  dewp
   <int> <int> <int>  <dbl> <chr>  <chr> <chr>   <chr>    <int> <dbl> <dbl>
 1  2013     1     1      5 EWR    IAH   N14228  UA           1  39.0  26.1
 2  2013     1     1      5 EWR    IAH   N14228  UA           2  39.0  27.0
 3  2013     1     1      5 EWR    IAH   N14228  UA           3  39.0  28.0
 4  2013     1     1      5 EWR    IAH   N14228  UA           4  39.9  28.0
 5  2013     1     1      5 EWR    IAH   N14228  UA           5  39.0  28.0
 6  2013     1     1      5 EWR    IAH   N14228  UA           6  37.9  28.0
 7  2013     1     1      5 EWR    IAH   N14228  UA           7  39.0  28.0
 8  2013     1     1      5 EWR    IAH   N14228  UA           8  39.9  28.0
 9  2013     1     1      5 EWR    IAH   N14228  UA           9  39.9  28.0
10  2013     1     1      5 EWR    IAH   N14228  UA          10  41    28.0
# … with 8,036,565 more rows, and 8 more variables: humid <dbl>,
#   wind_dir <dbl>, wind_speed <dbl>, wind_gust <dbl>, precip <dbl>,
#   pressure <dbl>, visib <dbl>, time_hour <dttm>
```

```
# A tibble: 336,776 x 8
    year month   day  hour origin dest  tailnum carrier
   <int> <int> <int> <dbl> <chr>  <chr> <chr>   <chr>  
 1  2013     1     1     5 EWR    IAH   N14228  UA     
 2  2013     1     1     5 LGA    IAH   N24211  UA     
 3  2013     1     1     5 JFK    MIA   N619AA  AA     
 4  2013     1     1     5 JFK    BQN   N804JB  B6     
 5  2013     1     1     6 LGA    ATL   N668DN  DL     
 6  2013     1     1     5 EWR    ORD   N39463  UA     
 7  2013     1     1     6 EWR    FLL   N516JB  B6     
 8  2013     1     1     6 LGA    IAD   N829AS  EV     
 9  2013     1     1     6 JFK    MCO   N593JB  B6     
10  2013     1     1     6 LGA    ORD   N3ALAA  AA     
# … with 336,766 more rows
```
…
flights2 %>%
  left_join(weather,
            by=c("origin","year","month","day"))
flights2 %>%
* left_join(airports, c("dest"="faa"))
```
]
 
.panel2-lef-auto[

```
# A tibble: 336,776 x 9
    year month   day  hour origin dest  tailnum carrier name                    
   <int> <int> <int> <dbl> <chr>  <chr> <chr>   <chr>   <chr>                   
 1  2013     1     1     5 EWR    IAH   N14228  UA      United Air Lines Inc.   
 2  2013     1     1     5 LGA    IAH   N24211  UA      United Air Lines Inc.   
 3  2013     1     1     5 JFK    MIA   N619AA  AA      American Airlines Inc.  
 4  2013     1     1     5 JFK    BQN   N804JB  B6      JetBlue Airways         
 5  2013     1     1     6 LGA    ATL   N668DN  DL      Delta Air Lines Inc.    
 6  2013     1     1     5 EWR    ORD   N39463  UA      United Air Lines Inc.   
 7  2013     1     1     6 EWR    FLL   N516JB  B6      JetBlue Airways         
 8  2013     1     1     6 LGA    IAD   N829AS  EV      ExpressJet Airlines Inc.
 9  2013     1     1     6 JFK    MCO   N593JB  B6      JetBlue Airways         
10  2013     1     1     6 LGA    ORD   N3ALAA  AA      American Airlines Inc.  
# … with 336,766 more rows
```

```
# A tibble: 8,036,575 x 19
    year month   day hour.x origin dest  tailnum carrier hour.y  temp  dewp
   <int> <int> <int>  <dbl> <chr>  <chr> <chr>   <chr>    <int> <dbl> <dbl>
 1  2013     1     1      5 EWR    IAH   N14228  UA           1  39.0  26.1
 2  2013     1     1      5 EWR    IAH   N14228  UA           2  39.0  27.0
 3  2013     1     1      5 EWR    IAH   N14228  UA           3  39.0  28.0
 4  2013     1     1      5 EWR    IAH   N14228  UA           4  39.9  28.0
 5  2013     1     1      5 EWR    IAH   N14228  UA           5  39.0  28.0
 6  2013     1     1      5 EWR    IAH   N14228  UA           6  37.9  28.0
 7  2013     1     1      5 EWR    IAH   N14228  UA           7  39.0  28.0
 8  2013     1     1      5 EWR    IAH   N14228  UA           8  39.9  28.0
 9  2013     1     1      5 EWR    IAH   N14228  UA           9  39.9  28.0
10  2013     1     1      5 EWR    IAH   N14228  UA          10  41    28.0
# … with 8,036,565 more rows, and 8 more variables: humid <dbl>,
#   wind_dir <dbl>, wind_speed <dbl>, wind_gust <dbl>, precip <dbl>,
#   pressure <dbl>, visib <dbl>, time_hour <dttm>
```

```
# A tibble: 336,776 x 15
    year month   day  hour origin dest  tailnum carrier name    lat   lon   alt
   <int> <int> <int> <dbl> <chr>  <chr> <chr>   <chr>   <chr> <dbl> <dbl> <dbl>
 1  2013     1     1     5 EWR    IAH   N14228  UA      Geor…  30.0 -95.3    97
 2  2013     1     1     5 LGA    IAH   N24211  UA      Geor…  30.0 -95.3    97
 3  2013     1     1     5 JFK    MIA   N619AA  AA      Miam…  25.8 -80.3     8
 4  2013     1     1     5 JFK    BQN   N804JB  B6      <NA>   NA    NA      NA
 5  2013     1     1     6 LGA    ATL   N668DN  DL      Hart…  33.6 -84.4  1026
 6  2013     1     1     5 EWR    ORD   N39463  UA      Chic…  42.0 -87.9   668
 7  2013     1     1     6 EWR    FLL   N516JB  B6      Fort…  26.1 -80.2     9
 8  2013     1     1     6 LGA    IAD   N829AS  EV      Wash…  38.9 -77.5   313
 9  2013     1     1     6 JFK    MCO   N593JB  B6      Orla…  28.4 -81.3    96
10  2013     1     1     6 LGA    ORD   N3ALAA  AA      Chic…  42.0 -87.9   668
# … with 336,766 more rows, and 3 more variables: tz <dbl>, dst <chr>,
#   tzone <chr>
```
…
---
# anti & semi
count: false

.panel1-lef2-auto[

```r
*flights
```
]
 
.panel2-lef2-auto[

```
# A tibble: 336,776 x 19
    year month   day dep_time sched_dep_time dep_delay arr_time sched_arr_time
   <int> <int> <int>    <int>          <int>     <dbl>    <int>          <int>
 1  2013     1     1      517            515         2      830            819
 2  2013     1     1      533            529         4      850            830
 3  2013     1     1      542            540         2      923            850
 4  2013     1     1      544            545        -1     1004           1022
 5  2013     1     1      554            600        -6      812            837
 6  2013     1     1      554            558        -4      740            728
 7  2013     1     1      555            600        -5      913            854
 8  2013     1     1      557            600        -3      709            723
 9  2013     1     1      557            600        -3      838            846
10  2013     1     1      558            600        -2      753            745
# … with 336,766 more rows, and 11 more variables: arr_delay <dbl>,
#   carrier <chr>, flight <int>, tailnum <chr>, origin <chr>, dest <chr>,
#   air_time <dbl>, distance <dbl>, hour <dbl>, minute <dbl>, time_hour <dttm>
```
…
---
count: false

.panel1-lef2-auto[

```r
flights %>%
* count(dest, sort = TRUE)
```
]
 
.panel2-lef2-auto[

```
# A tibble: 105 x 2
   dest      n
   <chr> <int>
 1 ORD   17283
 2 ATL   17215
 3 LAX   16174
 4 BOS   15508
 5 MCO   14082
 6 CLT   14064
 7 SFO   13331
 8 FLL   12055
 9 MIA   11728
10 DCA    9705
# … with 95 more rows
```
…
